// DDL FOR TABLE PERSON_ADDRESS
 
CREATE OR REPLACE PROCEDURE ABACUS_NONPRD_FND_DB.MDM_LANDING.MDM_PERSON_ADDRESS_PROC()
  RETURNS VARCHAR
  LANGUAGE javascript
  AS
  $$
  var rs = snowflake.execute( { sqlText:
      `BEGIN TRANSACTION;`
       } );
 
  var rs = snowflake.execute( { sqlText:
      `DROP TABLE IF EXISTS ABACUS_NONPRD_FND_DB.TRANSIENT.MDM_PERSON_ADDRESS_TEMP;`
       } );
 
   var rs = snowflake.execute( { sqlText:
      `CREATE TABLE ABACUS_NONPRD_FND_DB.TRANSIENT.MDM_PERSON_ADDRESS_TEMP AS SELECT * FROM ABACUS_NONPRD_FND_DB.MDM_LANDING.PERSON_ADDRESS;`
       } );


  var rs = snowflake.execute( { sqlText:
        `MERGE INTO ABACUS_NONPRD_FND_DB.MDM_FOUNDATION.PERSON_ADDRESS AS T
         using (
         SELECT *
  	from (
    		select
        	*,
        	row_number() over(partition by SOURCE, MASTERRECORDID, ADDRESSTYPE order by SOURCETIMESTAMP DESC) as rn
    		from
        	ABACUS_NONPRD_FND_DB.TRANSIENT.MDM_PERSON_ADDRESS_TEMP
	) t
	where t.rn = 1
	 ) AS S  
         ON T.SOURCE = S.SOURCE
         AND T.MASTERRECORDID = S.MASTERRECORDID
	 AND T.ADDRESSTYPE = S.ADDRESSTYPE
         WHEN matched
              THEN
              UPDATE SET
                     T.CORRELATIONID = S.CORRELATIONID,
		     T.MASTERRECORDID = S.MASTERRECORDID,
                     T.SOURCEID = S.SOURCEID,
                     T.PARENTSOURCEID = S.PARENTSOURCEID,
                     T.RELATIONSHIPNAME = S.RELATIONSHIPNAME,
                     T.SCHEMAVERSION = S.SCHEMAVERSION,
                     T.SOURCETIMESTAMP = S.SOURCETIMESTAMP,
                     T.CONSUMETIMESTAMP = S.CONSUMETIMESTAMP,
                     T.HASHID = S.HASHID,
                     T.PARENTTYPE = S.PARENTTYPE,
                     T.ADDRESSTYPE = S.ADDRESSTYPE,
                     T.USAGETYPE = S.USAGETYPE,
                     T.ADDRESSSOURCE = S.ADDRESSSOURCE,
                     T.ATTNCAREOF = S.ATTNCAREOF,
                     T.ADDRESSLINE1 = S.ADDRESSLINE1,
                     T.ADDRESSLINE2 = S.ADDRESSLINE2,
                     T.ADDRESSLINE3 = S.ADDRESSLINE3,
                     T.ADDRESSLINE4 = S.ADDRESSLINE4,
                     T.CITY = S.CITY,
                     T.COUNTY = S.COUNTY,
                     T.STATEPROVINCE = S.STATEPROVINCE,
                     T.POSTALCODE = S.POSTALCODE,
                     T.ZIPCODEEXTENSION = S.ZIPCODEEXTENSION,
                     T.COUNTRY = S.COUNTRY,
                     T.RANK = S.RANK,
                     T.LATITUDE = S.LATITUDE,
                     T.LONGITUDE = S.LONGITUDE,
                     T.PRIMARY = S.PRIMARY,
                     T.ACTIVE = S.ACTIVE,
                     T.VALIDATIONSTATUS = S.VALIDATIONSTATUS,
                     T.SRC_LDG_REC_UPDT_DT = S.LDG_REC_CREAT_DT,
                     T.FDN_REC_UPDT_DT = CURRENT_TIMESTAMP()
         WHEN NOT matched
             THEN
                     INSERT(CORRELATIONID,MASTERRECORDID,SOURCE,SOURCEID,PARENTSOURCEID,RELATIONSHIPNAME,SCHEMAVERSION,SOURCETIMESTAMP,CONSUMETIMESTAMP,HASHID,PARENTTYPE,ADDRESSTYPE,USAGETYPE,ADDRESSSOURCE,ATTNCAREOF,ADDRESSLINE1,ADDRESSLINE2,ADDRESSLINE3,ADDRESSLINE4,CITY,COUNTY,STATEPROVINCE,POSTALCODE,ZIPCODEEXTENSION,COUNTRY,RANK,LATITUDE,LONGITUDE,PRIMARY,ACTIVE,VALIDATIONSTATUS,SRC_LDG_REC_CREAT_DT,SRC_LDG_REC_UPDT_DT,FDN_REC_CREAT_DT,FDN_REC_UPDT_DT)
                     VALUES(S.CORRELATIONID,S.MASTERRECORDID,S.SOURCE,S.SOURCEID,S.PARENTSOURCEID,S.RELATIONSHIPNAME,S.SCHEMAVERSION,S.SOURCETIMESTAMP,S.CONSUMETIMESTAMP,S.HASHID,S.PARENTTYPE,S.ADDRESSTYPE,S.USAGETYPE,S.ADDRESSSOURCE,S.ATTNCAREOF,S.ADDRESSLINE1,S.ADDRESSLINE2,S.ADDRESSLINE3,S.ADDRESSLINE4,S.CITY,S.COUNTY,S.STATEPROVINCE,S.POSTALCODE,S.ZIPCODEEXTENSION,S.COUNTRY,S.RANK,S.LATITUDE,S.LONGITUDE,S.PRIMARY,S.ACTIVE,S.VALIDATIONSTATUS,S.LDG_REC_CREAT_DT,S.LDG_REC_UPDT_DT,CURRENT_TIMESTAMP(),CURRENT_TIMESTAMP())
         ;`
} );
 
 
  var rs = snowflake.execute( { sqlText:
        `COMMIT;`
         } );
    return 'Done.';
    $$;
 
