// DDL FOR TABLE MEMBER_PHONE

 
 
CREATE OR REPLACE PROCEDURE ABACUS_NONPRD_FND_DB.MDM_LANDING.MDM_MEMBER_PHONE_PROC()
  RETURNS VARCHAR
  LANGUAGE javascript
  AS
  $$
  var rs = snowflake.execute( { sqlText:
      `BEGIN TRANSACTION;`
       } );
 
  var rs = snowflake.execute( { sqlText:
      `DROP TABLE IF EXISTS ABACUS_NONPRD_FND_DB.TRANSIENT.MDM_MEMBER_PHONE_TEMP;`
       } );
 

  var rs = snowflake.execute( { sqlText:
      `CREATE TABLE ABACUS_NONPRD_FND_DB.TRANSIENT.MDM_MEMBER_PHONE_TEMP AS SELECT * FROM ABACUS_NONPRD_FND_DB.MDM_LANDING.MEMBER_PHONE;`
       } );

 
  var rs = snowflake.execute( { sqlText:
        `MERGE INTO ABACUS_NONPRD_FND_DB.MDM_FOUNDATION.MEMBER_PHONE AS T
         using (
         SELECT *
  	from (
    		select
        	*,
        	row_number() over(partition by SOURCE, MASTERRECORDID, PHONETYPE order by SOURCETIMESTAMP DESC) as rn
    		from
        	ABACUS_NONPRD_FND_DB.TRANSIENT.MDM_MEMBER_PHONE_TEMP
	) t
	where t.rn = 1
	 ) AS S 
         ON T.SOURCE = S.SOURCE
         AND T.MASTERRECORDID = S.MASTERRECORDID
	 AND T.PHONETYPE = S.PHONETYPE
         WHEN matched
              THEN
              UPDATE SET
                     T.CORRELATIONID = S.CORRELATIONID,
		     T.MASTERRECORDID = S.MASTERRECORDID,
                     T.SOURCEID = S.SOURCEID,
                     T.PARENTSOURCEID = S.PARENTSOURCEID,
                     T.RELATIONSHIPNAME = S.RELATIONSHIPNAME,
                     T.SCHEMAVERSION = S.SCHEMAVERSION,
                     T.SOURCETIMESTAMP = S.SOURCETIMESTAMP,
                     T.CONSUMETIMESTAMP = S.CONSUMETIMESTAMP,
                     T.HASHID = S.HASHID,
                     T.PARENTTYPE = S.PARENTTYPE,
                     T.PHONETYPE = S.PHONETYPE,
                     T.PHONESOURCE = S.PHONESOURCE,
                     T.NUMBER = S.NUMBER,
                     T.COUNTRYCODE = S.COUNTRYCODE,
                     T.AREACODE = S.AREACODE,
                     T.LOCALNUMBER = S.LOCALNUMBER,
                     T.EXTENSION = S.EXTENSION,
                     T.DIGITCOUNT = S.DIGITCOUNT,
                     T.FORMATMASK = S.FORMATMASK,
                     T.GEOAREA = S.GEOAREA,
                     T.GEOCOUNTRY = S.GEOCOUNTRY,
                     T.LINETYPE = S.LINETYPE,
                     T.ACTIVE = S.ACTIVE,
                     T.VALIDATIONSTATUS = S.VALIDATIONSTATUS,
                     T.PRIORITY = S.PRIORITY,
                     T.SRC_LDG_REC_UPDT_DT = S.LDG_REC_CREAT_DT,
                     T.FDN_REC_UPDT_DT = CURRENT_TIMESTAMP()
         WHEN NOT matched
             THEN
                     INSERT(CORRELATIONID,MASTERRECORDID,SOURCE,SOURCEID,PARENTSOURCEID,RELATIONSHIPNAME,SCHEMAVERSION,SOURCETIMESTAMP,CONSUMETIMESTAMP,HASHID,PARENTTYPE,PHONETYPE,PHONESOURCE,NUMBER,COUNTRYCODE,AREACODE,LOCALNUMBER,EXTENSION,DIGITCOUNT,FORMATMASK,GEOAREA,GEOCOUNTRY,LINETYPE,ACTIVE,VALIDATIONSTATUS,PRIORITY,SRC_LDG_REC_CREAT_DT,SRC_LDG_REC_UPDT_DT,FDN_REC_CREAT_DT,FDN_REC_UPDT_DT)
                     VALUES(S.CORRELATIONID,S.MASTERRECORDID,S.SOURCE,S.SOURCEID,S.PARENTSOURCEID,S.RELATIONSHIPNAME,S.SCHEMAVERSION,S.SOURCETIMESTAMP,S.CONSUMETIMESTAMP,S.HASHID,S.PARENTTYPE,S.PHONETYPE,S.PHONESOURCE,S.NUMBER,S.COUNTRYCODE,S.AREACODE,S.LOCALNUMBER,S.EXTENSION,S.DIGITCOUNT,S.FORMATMASK,S.GEOAREA,S.GEOCOUNTRY,S.LINETYPE,S.ACTIVE,S.VALIDATIONSTATUS,S.PRIORITY,S.LDG_REC_CREAT_DT,S.LDG_REC_UPDT_DT,CURRENT_TIMESTAMP(),CURRENT_TIMESTAMP())
         ;`
} );
 
 
  var rs = snowflake.execute( { sqlText:
        `COMMIT;`
         } );
    return 'Done.';
    $$;
 
 
 
